hw1
…
Show percentages on the y axis. Hint: use scales::percent.

For each period used to make the trend plot for the three series, make a boxplot showing the maximum percentage reached by every state stratified by region. Let the range of the y axis adapt to the range of each group.

Use the plot above to define four periods: No vaccine, First vaccine, Booster, and Bivalent. Get the dates when each vaccine series starts (these don’t have to be exact). Create a version of your data frame with a column called period that keeps the period associated with the week contained in each row.

Define a new variable that stores the maximum vaccination percentage reached during each period. But for the first vaccine period use series_complete, for the booster period use the booster column, and for the bivalent period use the bivalent percentages. Remove data from the no vaccine period. The make a plot comparing the COVID-19 death rate to the percent vaccinated. Use color to denote region. You should produce three plots, each with it’s own axes range. Put the three plots in three entries of a 2x2 layout. Comment on what you observe.

Does population density have an effect on infections? Use the state.area predefined variable to add compute population density. Make a histogram and density plot of state densities. Note that you will have to add the geographical area for Puerto Rico and DC as it is not included in state.area

# add state area and abbreviations for PR and DC
dat %>%
  mutate(area = state.area[match(state, state.abb)])

# A tibble: 9,853 × 18
   state state_name population region mmwr_year mmwr_week cases tests  hosp
   <chr> <chr>           <dbl>  <dbl>     <dbl>     <dbl> <dbl> <dbl> <dbl>
 1 AK    Alaska         733391     10      2020         4     0    NA    NA
 2 AK    Alaska         733391     10      2020         5     0    NA    NA
 3 AK    Alaska         733391     10      2020         6     0    NA    NA
 4 AK    Alaska         733391     10      2020         7     0    NA    NA
 5 AK    Alaska         733391     10      2020         8     0    NA    NA
 6 AK    Alaska         733391     10      2020         9     0    NA    NA
 7 AK    Alaska         733391     10      2020        10     0    NA    NA
 8 AK    Alaska         733391     10      2020        11     0    14    NA
 9 AK    Alaska         733391     10      2020        12    11   144    NA
10 AK    Alaska         733391     10      2020        13    52   968    NA
# ℹ 9,843 more rows
# ℹ 9 more variables: deaths_underlying_cause <dbl>,
#   deaths_multiple_causes <dbl>, deaths_prov <dbl>, series_complete <dbl>,
#   booster <dbl>, bivalent <dbl>, start_date <date>, end_date <date>,
#   area <dbl>
…
